"iteration","revenue"
"1","3106.114"
"2","3106.114"
"3","3285.171"
"4","3464.06"
"5","3533.868"
"6","3646.642"
"7","3712.489"
"8","3784.5630000000006"
"9","3835.53"
"10","3873.222"
"11","3907.6509999999994"
"12","3921.8280000000004"
"13","3943.983"
"14","3969.8520000000003"
"15","3974.631"
"16","3995.6270000000004"
"17","4019.411"
"18","4032.7529999999997"
"19","4053.0730000000003"
"20","4083.102"
"21","4104.044"
"22","4107.295999999999"
"23","4115.947"
"24","4123.896"
"25","4132.423"
"26","4140.387999999999"
"27","4148.0599999999995"
"28","4155.653"
"29","4158.3730000000005"
"30","4164.736"
"31","4169.754"
"32","4179.265"
"33","4188.535"
"34","4194.269"
"35","4201.483"
"36","4203.425"
"37","4210.887000000001"
"38","4217.2919999999995"
"39","4222.177999999999"
"40","4225.982999999999"
"41","4227.973"
"42","4231.628000000001"
"43","4234.871"
"44","4236.522999999999"
"45","4238.134999999999"
"46","4239.659"
"47","4243.897000000001"
"48","4245.436000000001"
"49","4246.602000000001"
"50","4249.439"
"51","4251.750000000001"
"52","4253.817000000001"
"53","4255.120000000001"
"54","4257.644"
"55","4259.05"
"56","4259.932999999999"
"57","4261.232000000001"
"58","4262.389"
"59","4263.273"
"60","4263.764000000001"
"61","4264.183999999999"
"62","4264.915"
"63","4265.402999999999"
"64","4265.9"
"65","4266.523999999999"
"66","4266.932"
"67","4267.3240000000005"
"68","4267.541"
"69","4267.932000000001"
"70","4268.235"
"71","4268.535000000001"
"72","4268.772"
"73","4268.943"
"74","4269.148999999999"
"75","4269.3330000000005"
"76","4269.433999999999"
"77","4269.598"
"78","4269.753000000001"
"79","4269.85"
"80","4269.932"
"81","4270.030000000001"
"82","4270.101"
"83","4270.164999999999"
"84","4270.228"
"85","4270.280000000001"
"86","4270.383"
"87","4270.626"
"88","4270.782999999999"
"89","4270.902"
"90","4270.917"
"91","4270.931999999999"
"92","4270.956"
"93","4270.959"
"94","4270.968999999999"
"95","4270.978"
"96","4270.987999999999"
"97","4270.995"
"98","4271.003"
"99","4271.005"
"100","4271.011"
